     Galaxy         S8+      LTE(G955F)             Application             List
     Application                                      Package                                                         Version
     SharedDeviceKeyguard                             com.sec.enterprise.knox.shareddevice.keyguard                   1.1.161201
     HideNotch                                        com.samsung.systemui.hidenotch                                  1.0
     Double cutout                                    com.android.internal.display.cutout.emulation.double            1.0
     Dark                                             com.android.systemui.theme.dark                                 1.0
     Tall cutout                                      com.android.internal.display.cutout.emulation.tall              1.0
     Corner cutout                                    com.android.internal.display.cutout.emulation.corner            1.0
     Android System                                   android                                                         9
     AppLinker                                        com.sec.android.app.applinker                                   1.1.14.90425
     Sound detectors                                  com.samsung.android.app.advsounddetector                        2.1.00.2
     Hiya Service                                     com.hiya.star                                                   2.3.1-samsung-1388
     EasyOneHand                                      com.sec.android.easyonehand                                     5.0
     Skype                                            com.skype.raider                                                2.4.534.17432
     Facebook App Manager                             com.facebook.appmanager                                         37.1.4
     SCPM Client                                      com.samsung.android.sm.policy                                   3.1.01
     Companion Device Manager                         com.android.companiondevicemanager                              9
     Link Sharing                                     com.samsung.android.app.simplesharing                           10.0.00.21
     com.sec.bcservice                                com.sec.bcservice                                               2.0
     Wi-Fi Calling                                    com.sec.unifiedwfc                                              6.3.04.66
     Certificate Installer                            com.android.certinstaller                                       9
     Samsung Keyboard                                 com.sec.android.inputmethod                                     3.3.22.27
     Smart View                                       com.samsung.android.smartmirroring                              6.0.61
     Print Service Recommendation Service             com.google.android.printservice.recommendation                  1.3.0
     Enterprise Sim Pin Service                       com.sec.enterprise.mdm.services.simpin                          9
     Favourite Contacts                               com.sec.android.widgetapp.easymodecontactswidget                10.0.05
     Universal switch                                 com.samsung.android.universalswitch                             2.0.00.0
     Google Calendar Sync                             com.google.android.syncadapters.calendar                        5.2.3-99827563-release
     Briefing                                         flipboard.boxer.app                                             3.1.0
     Samsung text-to-speech engine                    com.samsung.SMT                                                 3.0.01.8
     Google Text-to-speech Engine                     com.google.android.tts                                          3.16.6.232892818
     CNN for Edge Panel                               com.cnn.mobile.android.phone.edgepanel                          1.0.rc46
     ANT HAL Service                                  com.dsi.ant.server                                              3.0.0
     Video Trimmer                                    com.samsung.app.newtrim                                         2.3.33.0
     CarmodeStub                                      com.samsung.android.drivelink.stub                              1.2.06
     Video Editor                                     com.sec.android.app.vepreload                                   2.5.00.46
     WlanTest                                         com.sec.android.app.wlantest                                    1.1.0
     Google Contacts Sync                             com.google.android.syncadapters.contacts                        9-4832352
     Dual Messenger                                   com.samsung.android.da.daagent                                  2.0.00.0
     ShortcutBNR                                      com.samsung.android.shortcutbackupservice                       9
     Calendar                                         com.samsung.android.calendar                                    10.1.00.9
     MLDAPlog                                         com.sec.mldapchecker                                            1.0.03
     BluetoothTest                                    com.sec.android.app.bluetoothtest                               9
     Samsung ApexService                              com.sec.android.app.apex                                        3.0.31
     IMS Settings                                     com.samsung.advp.imssettings                                    1.0
     Filter Provider                                  com.samsung.android.provider.filterprovider                     4.0.18
     com.sec.phone                                    com.sec.phone                                                   1.0
     Write on PDF                                     com.samsung.android.spdfnote                                    2.4.30.16
     com.android.cts.ctsshim                          com.android.cts.ctsshim                                         8.1.0-4396705
     SecurityLogAgent                                 com.samsung.android.securitylogagent                            8.0.00.23
     Default Print Service                            com.android.bips                                                9
     Perso                                            com.sec.android.app.personalization                             9
     Samsung Internet panel                           com.samsung.android.app.sbrowseredge                            3.0.26
     RoseEUKor                                        com.monotype.android.font.rosemary                              1.0.03-3
     SetupWizardLegalProvider                         com.sec.android.app.setupwizardlegalprovider                    1.0.13.0
     Samsung MirrorLink 1.1                           com.samsung.android.app.mirrorlink                              1.4.70
     bootagent                                        com.samsung.ucs.agent.boot                                      9
     com.android.providers.partnerbookmarks           com.android.providers.partnerbookmarks                          9
     TetheringAutomation                              com.sec.automation                                              1.0.1
     Clipboard edge                                   com.samsung.android.app.clipboardedge                           1.3.01
     com.sec.android.app.chromecustomizations         com.sec.android.app.chromecustomizations                        3.0.20
     Bixby Vision                                     com.samsung.android.visionintelligence                          2.6.90.3
     YouTube                                          com.google.android.youtube                                      14.08.55
     ANT + DUT                                        com.dsi.ant.sample.acquirechannels                              01.00.05
     Safety Information                               com.samsung.safetyinformation                                   2.0.17.0
     Foundation                                       com.monotype.android.font.foundation                            2.2.00.1
     Nearby Service                                   com.samsung.android.allshare.service.mediashare                 2.2
     eSE UCS Plugin                                   com.samsung.ucs.agent.ese                                       1.0
     Gmail                                            com.google.android.gm                                           9.2.3.235065705.release
     EmergencyManagerService                          com.sec.android.emergencymode.service                           8.0.41
     com.sec.enterprise.knox.attestation              com.sec.enterprise.knox.attestation                             1.0.2
     android.autoinstalls.config.samsung              android.autoinstalls.config.samsung                             0000
     Camera Test                                      com.sec.factory.camera                                          2.1.91
     com.sec.vsimservice                              com.sec.vsimservice                                             1.0
     com.android.wallpaperbackup                      com.android.wallpaperbackup                                     9
     RootPA                                           com.gd.mobicore.pa                                              4.2
     Print Spooler                                    com.android.printspooler                                        9
     Android System WebView                           com.google.android.webview                                      72.0.3626.121
     SimMobilityKit                                   com.samsung.ims.smk                                             1.3.19
     Motion wide-angle selfie viewer                  com.samsung.android.app.selfmotionpanoramaviewer                2.0.51
     Basic Daydreams                                  com.android.dreams.basic                                        9
     Wearable Manager Installer                       com.samsung.android.app.watchmanagerstub                        1.1.15.13044
     SilentLogging                                    com.sec.modem.settings                                          1.0.1
     com.google.ar.core                               com.google.ar.core                                              0
     Knox Enrollment Service                          com.sec.enterprise.knox.cloudmdm.smdms                          2.0.45
     EmergencyProvider                                com.sec.android.provider.emergencymode                          2.0.03
     Bluetooth MIDI Service                           com.android.bluetoothmidiservice                                9
     Clock                                            com.sec.android.app.clockpackage                                10.0.00.60
     Virtual shot viewer                              com.samsung.android.app.interactivepanoramaviewer               2.0.37
     CaptivePortalLogin                               com.android.captiveportallogin                                  9
     com.android.se                                   com.android.se                                                  9
     Sports                                           com.samsung.android.widgetapp.yahooedge.sport                   6.0.13
     Wi-Fi Tips                                       com.samsung.android.net.wifi.wifiguider                         1.1.00.50
     Maps                                             com.google.android.apps.maps                                    9.85.2
     Facebook                                         com.facebook.katana                                             stub (37.1.4)
     Launcher                                         com.sec.android.emergencylauncher                               7.0.26
     Smart Switch Agent                               com.sec.android.easyMover.Agent                                 1.6.06.61
     Key Chain                                        com.android.keychain                                            9
     Photo Screensavers                               com.android.dreams.phototable                                   9
     ClipboardSaveService                             com.samsung.clipboardsaveservice                                1.0
     HTML Viewer                                      com.android.htmlviewer                                          3.0.01
     User Manual                                      com.sec.android.widgetapp.webmanual                             3.0.02
     SplitSoundService                                com.sec.android.splitsound                                      1.0
     Smart​Things                                     com.samsung.android.ststub                                      1.0.00
     ChocoEUKor                                       com.monotype.android.font.chococooky                            1.0.04-4
     ANT+ Plugins Service                             com.dsi.ant.plugins.antplus                                     3.6.10
     MDMApp                                           com.samsung.android.mdm                                         1.0
     Automation Test                                  com.sec.android.app.DataCreate                                  1.0
     Samsung capture                                  com.samsung.android.app.smartcapture                            2.9.10
     Sim App Dialog                                   com.android.simappdialog                                        9
     slocation                                        com.samsung.android.location                                    1.0.49
     Bookmark Provider                                com.android.bookmarkprovider                                    9
     Game Optimizing Service                          com.samsung.android.game.gos                                    2.0.01.0
     Weather                                          com.sec.android.daemonapp                                       1.6.12.52
     HandwritingService                               com.samsung.android.sdk.handwriting                             2.3.07
     Quick tools                                      com.sec.android.app.quicktool                                   7.0.22
     Android Easter Egg                               com.android.egg                                                 1.0
     Dsms                                             com.samsung.android.dsms                                        1.0.30
     SIM Toolkit                                      com.android.stk2                                                9
     Reminder                                         com.samsung.android.app.reminder                                10.0.00.71000
     Dictionary                                       com.diotek.sec.lookup.dictionary                                3.001.014
     AASAservice                                      com.samsung.aasaservice                                         8.0
     Sound picker                                     com.samsung.android.app.soundpicker                             10.0.00.16
     Voice Assistant                                  com.samsung.android.app.talkback                                5.1.00.36
     Motion panorama viewer                           com.samsung.android.app.motionpanoramaviewer                    2.0.71
     OM Customize                                     com.sec.android.omc                                             2.1.05.0
     Security Storage                                 com.sec.android.providers.security                              1.1.05
     CarrierDefaultApp                                com.android.carrierdefaultapp                                   9
     Autofill with Samsung Pass                       com.samsung.android.samsungpassautofill                         1.4.10.2
     PacProcessor                                     com.android.pacprocessor                                        9
     Chrome                                           com.android.chrome                                              72.0.3626.121
     SmartFittingService                              com.samsung.android.smartfitting                                1.2.00
     DRParser Mode                                    com.sec.android.app.parser                                      2.1.10
     Android Shared Library                           com.google.android.ext.shared                                   1
     Wi-Fi Direct                                     com.samsung.android.allshare.service.fileshare                  3.0
     RcsSettings                                      com.samsung.rcs                                                 7.0r10456367
     System Tracing                                   com.android.traceur                                             1.0
     BBCAgent                                         com.samsung.android.bbc.bbcagent                                4.0.00.6
     CoolEUKor                                        com.monotype.android.font.cooljazz                              2.0.01-2
     Story Video Editor                               com.samsung.app.highlightplayer                                 2.5.00.31
     SecVideoEngineService                            com.sec.sve                                                     1.0
     Kids Home Installer                              com.samsung.android.kidsinstaller                               10.0.18
     Finance                                          com.samsung.android.widgetapp.yahooedge.finance                 6.0.13
     SIM Toolkit                                      com.android.stk                                                 9
     Bluetooth                                        com.android.bluetooth                                           9
     Google VR Services                               com.google.vr.vrcore                                            1.15.196855678
     GOS Legacy                                       com.enhance.gameservice                                         1.9.00.4
     NFC                                              com.android.nfc                                                 9
     ClipboardUIService                               com.samsung.android.clipboarduiservice                          9
     USBSettings                                      com.sec.usbsettings                                             1.0
     Slow motion editor                               com.samsung.app.slowmotion                                      3.2.02.60
     Samsung Members                                  com.samsung.android.voc                                         2.8.99.7
     ANT Radio Service                                com.dsi.ant.service.socket                                      4.14.20
     Always On Display                                com.samsung.android.app.aodservice                              4.2.44
     Accessibility                                    com.samsung.accessibility                                       10.0.03.33
     com.google.android.gms.policy_sidecar_aps        com.google.android.gms.policy_sidecar_aps                       24900.194323810.194323810
     Apps edge                                        com.samsung.android.app.appsedge                                4.0.02
     Assistant menu                                   com.samsung.android.app.assistantmenu                           5.0.00.0
     Authentication Framework                         com.samsung.android.authfw                                      1.0.57.8
     AutoPreconfig                                    com.sec.android.AutoPreconfig                                   2.0.0
     com.android.backupconfirm                        com.android.backupconfirm                                       9
     BadgeProvider                                    com.sec.android.provider.badge                                  2.1.00.5
     SmartThings                                      com.samsung.android.beaconmanager                               9.0.16.0
     Face                                             com.samsung.android.bio.face.service                            1.0
     Bixby Voice                                      com.samsung.android.bixby.agent                                 2.1.18.4
     Bixby Voice Stub                                 com.samsung.android.bixby.agent.dummy                           1.0.01.0
     Bixby Home                                       com.samsung.android.app.spage                                   3.0.01.32
     Bixby Service                                    com.samsung.android.bixby.service                               2.1.17.8
     \"Bixby\" voice wake-up                          com.samsung.android.bixby.wakeup                                2.1.05.26
     Blocked Numbers Storage                          com.android.providers.blockednumber                             9
     Blue light filter                                com.samsung.android.bluelightfilter                             2.0.0
     CMHProvider                                      com.samsung.cmh                                                 4.0.81
     CSC                                              com.samsung.sec.android.application.csc                         1.0.1.0
     Call Log Backup/Restore                          com.android.calllogbackup                                       9
     com.android.carrierconfig                        com.android.carrierconfig                                       1.0.0
     Edge screen                                      com.samsung.android.app.cocktailbarservice                      4.0.58.3
     ConfigUpdater                                    com.google.android.configupdater                                9-4832352
     Workspace                                        com.samsung.android.knox.containeragent                         2.7.05001015
     Context Service                                  com.samsung.android.providers.context                           2.0.12
     Call+                                            com.samsung.crane                                               1.1.00.23
     com.android.cts.priv.ctsshim                     com.android.cts.priv.ctsshim                                    8.1.0-4396705
     Package Access Helper                            com.android.defcontainer                                        9
     Samsung DeX                                      com.sec.android.desktopmode.uiservice                           3.1.29.1
     DeviceKeystring                                  com.sec.android.app.factorykeystring                            9
     DQA                                              com.samsung.android.dqagent                                     1.1.13.37
     DeviceTest                                       com.sec.factory                                                 9
     DeX community                                    com.sec.android.desktopcommunity                                1.1.30
     DiagMonAgent                                     com.sec.android.diagmonagent                                    5.3.14
     Files                                            com.android.documentsui                                         9
     Downloads                                        com.android.providers.downloads.ui                              9
     SmartThings                                      com.samsung.android.easysetup                                   9.0.16.0
     Emergency information                            com.android.emergency                                           9
     emojiupdater                                     com.samsung.android.emojiupdater                                1.0.00.0
     com.sec.epdg                                     com.sec.epdg                                                    9
     Excel                                            com.microsoft.office.excel                                      16.1.0.1
     External Storage                                 com.android.externalstorage                                     9
     Facebook App Installer                           com.facebook.system                                             37.1.4
     Facebook Services                                com.facebook.services                                           37.1.4
     com.samsung.faceservice                          com.samsung.faceservice                                         3.0.26
     Finder                                           com.samsung.android.app.galaxyfinder                            9.0.54
     Find My Mobile                                   com.samsung.android.fmm                                         7.0.18.1
     Software update                                  com.wssyncmldm                                                  3.3.38
     Fused Location                                   com.android.location.fused                                      9
     Galaxy Graphics Driver                           com.samsung.gpudriver.S8MaliG71_90                              1.0.12.0
     Galaxy Essentials Widget                         com.sec.android.widgetapp.samsungapps                           1.7.13.0
     Galaxy Store                                     com.sec.android.app.samsungapps                                 4.5.02.5
     Game Launcher                                    com.samsung.android.game.gamehome                               3.5.19.0
     Game Tools                                       com.samsung.android.game.gametools                              2.5.06.1
     360 Photo Editor                                 com.sec.android.mimage.gear360editor                            2.6.23.66
     Gear VR Service                                  com.samsung.android.hmt.vrsvc                                   3.2.01.1
     Google Play services                             com.google.android.gms                                          15.0.90 (100400-231259764)
     Google Backup Transport                          com.google.android.backuptransport                              9-4832352
     com.samsung.daydream.customization               com.samsung.daydream.customization                              1.0.03
     Android Services Library                         com.google.android.ext.services                                 1
     Market Feedback Agent                            com.google.android.feedback                                     9-4832352
     Google One Time Init                             com.google.android.onetimeinitializer                           9-4832352
     Package installer                                com.google.android.packageinstaller                             9-5218085
     Google Partner Setup                             com.google.android.partnersetup                                 9-4832352
     Android Setup                                    com.google.android.apps.restore                                 1.0.233743793
     Google Services Framework                        com.google.android.gsf                                          9-5272573
     Health Service                                   com.sec.android.service.health                                  2.1.4.003
     Adapt Sound                                      com.sec.hearingadjust                                           7.1.33
     OK Google enrollment                             com.android.hotwordenrollment.okgoogle                          9
     X Google enrollment                              com.android.hotwordenrollment.xgoogle                           9
     HwModuleTest                                     com.sec.android.app.hwmoduletest                                9
     IPService                                        com.samsung.ipservice                                           2.0.31
     ImsLogger                                        com.sec.imslogger                                               1.20170701
     com.sec.ims                                      com.sec.ims                                                     1.0
     Input Devices                                    com.android.inputdevices                                        9
     IpsGeofence                                      com.samsung.android.ipsgeofence                                 4.0.00.11
     Camera Iris User Test                            com.sec.factory.iris.usercamera                                 1.0.00
     KLMS Agent                                       com.samsung.klmsagent                                           3.2.19105
     Keyguard Wallpaper Updator                       com.samsung.android.keyguardwallpaperupdator                    2.0.36
     KnoxContainerDesktop                             com.samsung.android.knox.containerdesktop                       1.0
     KnoxCore                                         com.samsung.android.knox.containercore                          1.0
     Samsung DeX Home                                 com.sec.android.app.desktoplauncher                             2.7.07.19
     Payment Services                                 com.samsung.android.kgclient                                    1.8.02
     LED icon editor                                  com.samsung.android.app.ledcoverdream                           2.0.51
     LED Cover Service                                com.sec.android.cover.ledcover                                  1.3.32
     Work profile setup                               com.android.managedprovisioning                                 9
     Samsung Galaxy Friends                           com.samsung.android.mateagent                                   2.0.72.4
     mlp                                              com.samsung.mlp                                                 3.0.05
     MmsService                                       com.android.mms.service                                         9
     Service mode RIL                                 com.sec.android.RilServiceModeApp                               9
     MTP application                                  com.samsung.android.MtpApplication                              1.0
     MTP Host                                         com.android.mtp                                                 9
     Separate app sound                               com.samsung.android.setting.multisound                          1.0.00.21
     NSDSWebApp                                       com.sec.vsim.ericssonnsds.webapp                                1.2.00
     Samsung Location SDK                             com.sec.location.nsflp2                                         3.5.27
     NetworkDiagnostic                                com.samsung.android.networkdiagnostic                           2.0.01.16
     Configuration update                             com.samsung.android.app.omcagent                                5.1.35
     Configuration message                            com.wsomacp                                                     7.2.13
     OneDrive                                         com.microsoft.skydrive                                          3.5
     Samsung PaymentFramework                         com.samsung.android.spayfw                                      2.7.91
     People edge                                      com.samsung.android.service.peoplestripe                        16.0.00.29
     RilNotifier                                      com.sec.app.RilErrorNotifier                                    1.0.0
     Google Play Store                                com.android.vending                                             13.7.15-all [0] [PR] 234250289
     Photo Editor                                     com.sec.android.mimage.photoretouching                          2.6.23.66
     PowerPoint                                       com.microsoft.office.powerpoint                                 16.1.0.1
     Application installer                            com.sec.android.preloadinstaller                                9
     ProxyHandler                                     com.android.proxyhandler                                        9
     Remote Mobile Manager                            com.samsung.android.rlc                                         2.2.05
     Customization Service                            com.samsung.android.rubin.app                                   2.3.00.46
     SEMFactoryApp                                    com.sem.factoryapp                                              4.5
     SKMSAgentService                                 com.skms.android.agent                                          1.0.40-23
     Software update                                  com.sec.android.soagent                                         4.4.13
     Security policy updates                          com.samsung.android.spdclient                                   6.0.15
     Samsung Push Service                             com.sec.spp.push                                                2.0.09
     SVC Agent                                        com.samsung.android.svcagent                                    4.0.00.6
     Voice service                                    com.samsung.svoice.sync                                         3.0.00.23
     Samsung account                                  com.osp.app.signin                                              4.0.00.1
     Samsung Billing                                  com.sec.android.app.billing                                     5.0.16.0
     Calendar Storage                                 com.android.providers.calendar                                  10.0.00.13
     Camera                                           com.sec.android.app.camera                                      9.0.01.55
     Samsung Cloud                                    com.samsung.android.scloud                                      3.6.00.14
     Contacts                                         com.samsung.android.contacts                                    10.1.02.33
     Contacts Storage                                 com.android.providers.contacts                                  10.0.61
     Samsung Device Health Manager Service            com.sec.android.sdhms                                           9
     Phone                                            com.samsung.android.dialer                                      10.1.02.33
     Samsung Experience Svc                           com.samsung.android.mobileservice                               10.1.00.14
     Gallery                                          com.sec.android.gallery3d                                       10.0.20.11
     Call                                             com.samsung.android.incallui                                    10.1.07.22
     Magnifier                                        com.sec.android.app.magnifier                                   3.5.56
     Messages                                         com.samsung.android.messaging                                   10.0.20.265
     Samsung Pass                                     com.samsung.android.samsungpass                                 1.6.00.6
     SamsungPositioning                               com.samsung.android.samsungpositioning                          3.0.03.17
     What                                             com.samsung.android.app.social                                  10.0.16.14
     Time Zone Updater                                com.samsung.android.timezone.updater                            1.0.00.00000
     Video Player                                     com.samsung.android.video                                       7.3.01.37
     Download Manager                                 com.android.providers.downloads                                 9
     Iris                                             com.samsung.android.server.iris                                 1.0
     Live Wallpaper Picker                            com.android.wallpaper.livepicker                                9
     Media Storage                                    com.android.providers.media                                     9
     My Files                                         com.sec.android.app.myfiles                                     10.0.02.113
     Settings                                         com.android.settings                                            9
     Settings Suggestions                             com.android.settings.intelligence                               9
     Samsung SetupWizard                              com.sec.android.app.SecSetupWizard                              1.0.68.1
     Dialer Storage                                   com.android.providers.telephony                                 9
     Secure Folder                                    com.samsung.knox.securefolder                                   1.3.01.88
     Selective focus                                  com.sec.android.ofviewer                                        3.0.13
     Safety assistance                                com.sec.android.app.safetyassurance                             10.0.00.19
     SettingsBixby                                    com.samsung.android.app.settings.bixby                          1.0.46
     Settings Storage                                 com.android.providers.settings                                  9
     Settings                                         com.samsung.android.SettingsReceiver                            9
     Android Setup                                    com.google.android.setupwizard                                  228.5224507
     com.android.sharedstoragebackup                  com.android.sharedstoragebackup                                 9
     Shell                                            com.android.shell                                               9
     SIM card manager                                 com.sec.android.app.simsettingmgr                               1.0
     Smart Call                                       com.samsung.android.smartcallprovider                           10.0.14
     EpdgTestApp                                      com.sec.epdgtestapp                                             9
     Device care                                      com.samsung.android.lool                                        10.0.00.55
     Device security                                  com.samsung.android.sm.devicesecurity                           6.2.06
     com.samsung.android.smartswitchassistant         com.samsung.android.smartswitchassistant                        1.0.06
     SoundAlive                                       com.sec.android.app.soundalive                                  9.1.57
     Intent Filter Verification Service               com.android.statementservice                                    1.0
     Tags                                             com.android.apps.tag                                            4.1.02
     StickerCenter                                    com.samsung.android.stickercenter                               1.0.2.0
     Default live sticker                             com.samsung.android.app.camera.sticker.facear.preload           1.0.37
     StickerProvider                                  com.samsung.android.provider.stickerprovider                    2.0.37
     Stamps                                           com.samsung.android.app.camera.sticker.stamp.preload            3.0.07
     Storage Manager                                  com.android.storagemanager                                      9
     StoryService                                     com.samsung.storyservice                                        2.0.25
     SuwScriptPlayer                                  com.sec.android.app.suwscriptplayer                             2.0.12.1
     System UI                                        com.android.systemui                                            9
     SystemUIBixby2                                   com.samsung.systemui.bixby2                                     1.0.04.1
     Samsung DeX System UI                            com.samsung.desktopsystemui                                     9
     Tasks edge                                       com.samsung.android.app.taskedge                                3.3.49
     TeeService                                       com.trustonic.teeservice                                        9
     Phone Services                                   com.android.phone                                               9
     Call Management                                  com.android.server.telecom                                      9
     Phone                                            com.samsung.android.app.telephonyui                             10.1.07.49
     Samsung Themes                                   com.samsung.android.themecenter                                 8.0.0.0
     Galaxy Themes                                    com.samsung.android.themestore                                  4.3.00.90213
     Samsung Time Zone Data                           com.samsung.android.timezone.data_P                             1.0.03.0
     One UI Home                                      com.sec.android.app.launcher                                    10.0.10.44
     Device Health Services                           com.google.android.apps.turbo                                   1.7.0.231232376.release
     UIBCVirtualSoftkey                               com.sec.android.uibcvirtualsoftkey                              2.0.22
     upday                                            de.axelspringer.yana.zeropage                                   2.5.12709
     User Dictionary                                  com.android.providers.userdictionary                            9
     Google                                           com.google.android.googlequicksearchbox                         9.31.8.21.arm64
     VisionProvider                                   com.samsung.visionprovider                                      2.4.01.1
     VpnDialogs                                       com.android.vpndialogs                                          9
     com.android.wallpapercropper                     com.android.wallpapercropper                                    9
     Wallpapers                                       com.sec.android.wallpapercropper2                               4.0.00.30
     Word                                             com.microsoft.office.word                                       16.1.0.1
     IMS Service                                      com.sec.imsservice                                              1.0
     Knox Analytics Uploader                          com.samsung.android.knox.analytics.uploader                     1.1.26.1
     KnoxVpnPacProcessor                              com.knox.vpn.proxyhandler                                       9
     ringtonebackup                                   com.sec.android.app.ringtoneBR                                  9
     Service mode                                     com.sec.android.app.servicemodeapp                              9
     SmartFaceService                                 com.samsung.android.smartface                                   1.0
     com.samsung.android.wallpaper.res                com.samsung.android.wallpaper.res                               9
     Smart Switch                                     com.sec.android.easyMover                                       3.6.05.13
     Naver V Panel                                    com.samsung.android.app.panel.naver.v                           4.0.01
