     Galaxy         S10     LTE(G973F)              Application             List
     Application                                      Package                                                         Version
     ANT + DUT                                        com.dsi.ant.sample.acquirechannels                              01.00.05
     Facebook App Manager                             com.facebook.appmanager                                         37.1.4
     Live Message                                     com.samsung.android.service.livedrawing                         2.1.15
     Foundation                                       com.monotype.android.font.foundation                            2.2.00.1
     Key Chain                                        com.android.keychain                                            9
     User Manual                                      com.sec.android.widgetapp.webmanual                             3.0.02
     slocation                                        com.samsung.android.location                                    1.0.49.209
     Clipboard edge                                   com.samsung.android.app.clipboardedge                           1.2.14
     SetupWizardLegalProvider                         com.sec.android.app.setupwizardlegalprovider                    1.0.13.0
     Kids Home Installer                              com.samsung.android.kidsinstaller                               10.0.24
     eSE UCS Plugin                                   com.samsung.ucs.agent.ese                                       1
     Print Service Recommendation Service             com.google.android.printservice.recommendation                  1.3.0
     AirCommandManager                                com.samsung.android.aircommandmanager                           1.2.01
     com.sec.bcservice                                com.sec.bcservice                                               2
     Weather                                          com.sec.android.daemonapp                                       1.6.10.77
     BluetoothTest                                    com.sec.android.app.bluetoothtest                               9
     Samsung MirrorLink 1.1                           com.samsung.android.app.mirrorlink                              1.4.68
     Bixby Vision                                     com.samsung.android.visionintelligence                          3.0.01.19
     CarrierDefaultApp                                com.android.carrierdefaultapp                                   9
     Wearable Manager Installer                       com.samsung.android.app.watchmanagerstub                        1.1.15.13044
     Motion wide-angle selfie viewer                  com.samsung.android.app.selfmotionpanoramaviewer                2.0.50
     Cameralyzer                                      com.sec.factory.cameralyzer                                     3.1.19.4041
     Samsung capture                                  com.samsung.android.app.smartcapture                            2.9.06
     Sound picker                                     com.samsung.android.app.soundpicker                             10.0.00.15
     Sim App Dialog                                   com.android.simappdialog                                        9
     Maps                                             com.google.android.apps.maps                                    9.85.2
     PacProcessor                                     com.android.pacprocessor                                        9
     ANT HAL Service                                  com.dsi.ant.server                                              3.0.0
     FactoryCamera                                    com.sec.factory.camera                                          3.3.06
     Android Easter Egg                               com.android.egg                                                 1
     Samsung Internet panel                           com.samsung.android.app.sbrowseredge                            3.0.26
     com.sec.phone                                    com.sec.phone                                                   1
     Wi-Fi Direct                                     com.samsung.android.allshare.service.fileshare                  3
     MDMApp                                           com.samsung.android.mdm                                         1
     TetheringAutomation                              com.sec.automation                                              1.0.1
     Clock                                            com.sec.android.app.clockpackage                                10.0.01.32
     Quick tools                                      com.sec.android.app.quicktool                                   7.0.22
     EmergencyManagerService                          com.sec.android.emergencymode.service                           8.0.37
     ClipboardUIService                               com.samsung.android.clipboarduiservice                          9
     Print Spooler                                    com.android.printspooler                                        9
     Google Calendar Sync                             com.google.android.syncadapters.calendar                        5.2.3-99827563-release
     Android Shared Library                           com.google.android.ext.shared                                   1
     HTML Viewer                                      com.android.htmlviewer                                          3.0.01
     Samsung text-to-speech engine                    com.samsung.SMT                                                 3.0.01.8
     Favourite Contacts                               com.sec.android.widgetapp.easymodecontactswidget                10.0.05
     Automation Test                                  com.sec.android.app.DataCreate                                  1
     Knox Key Chain                                   com.samsung.knox.keychain                                       9
     Filter Provider                                  com.samsung.android.provider.filterprovider                     4.0.15
     EasyOneHand                                      com.sec.android.easyonehand                                     5
     Bookmark Provider                                com.android.bookmarkprovider                                    9
     Companion Device Manager                         com.android.companiondevicemanager                              9
     SecVideoEngineService                            com.sec.sve                                                     1
     Samsung ApexService                              com.sec.android.app.apex                                        3.0.38
     SplitSoundService                                com.sec.android.splitsound                                      1
     Safety Information                               com.samsung.safetyinformation                                   2.0.17.0
     Wi-Fi Tips                                       com.samsung.android.net.wifi.wifiguider                         1.1.00.50
     SIM Toolkit                                      com.android.stk2                                                9
     bootagent                                        com.samsung.ucs.agent.boot                                      9
     Video Editor                                     com.sec.android.app.vepreload                                   2.5.10.41
     android.autoinstalls.config.samsung              android.autoinstalls.config.samsung                             0
     Hiya Service                                     com.hiya.star                                                   2.3.1-samsung-1388
     Story Video Editor                               com.samsung.app.highlightplayer                                 2.6.00.29
     com.android.cts.ctsshim                          com.android.cts.ctsshim                                         8.1.0-4396705
     Slow motion editor                               com.samsung.app.slowmotion                                      3.2.02.41
     Samsung Keyboard                                 com.sec.android.inputmethod                                     3.3.20.33
     Default Print Service                            com.android.bips                                                9
     AppLinker                                        com.sec.android.app.applinker                                   1.1.13.90314
     CaptivePortalLogin                               com.android.captiveportallogin                                  9
     com.sec.android.app.chromecustomizations         com.sec.android.app.chromecustomizations                        3.0.15
     Wi-Fi Calling                                    com.sec.unifiedwfc                                              6.3.00.61
     SilentLogging                                    com.sec.modem.settings                                          1.0.1
     com.sec.vsimservice                              com.sec.vsimservice                                             1
     TEEgrisTuiService                                com.samsung.sec.android.teegris.tui_service                     1
     Security Storage                                 com.sec.android.providers.security                              1.1.05
     ClipboardSaveService                             com.samsung.clipboardsaveservice                                1
     YouTube                                          com.google.android.youtube                                      14.05.56
     SCPM Client                                      com.samsung.android.sm.policy                                   3.1.01
     Enterprise Sim Pin Service                       com.sec.enterprise.mdm.services.simpin                          9
     Launcher                                         com.sec.android.emergencylauncher                               7.0.27
     HandwritingService                               com.samsung.android.sdk.handwriting                             2.3.05
     AASAservice                                      com.samsung.aasaservice                                         8
     Calendar                                         com.samsung.android.calendar                                    10.1.00.8
     Google Text-to-speech Engine                     com.google.android.tts                                          3.15.18.200023596
     Gmail                                            com.google.android.gm                                           8.12.30.230564275.release
     Select background music                          com.sec.android.app.ve.vebgm                                    1.0.00.26
     NFC                                              com.android.nfc                                                 9
     Photo Screensavers                               com.android.dreams.phototable                                   9
     SIM Toolkit                                      com.android.stk                                                 9
     Video Trimmer                                    com.samsung.app.newtrim                                         2.3.24
     Bluetooth                                        com.android.bluetooth                                           9
     Perso                                            com.sec.android.app.personalization                             9
     Dictionary                                       com.diotek.sec.lookup.dictionary                                3.001.014
     Certificate Installer                            com.android.certinstaller                                       9
     com.sec.enterprise.knox.attestation              com.sec.enterprise.knox.attestation                             1.0.2
     Call & Message Continuity                        com.samsung.android.mdecservice                                 2.0.00.83
     com.android.se                                   com.android.se                                                  9
     com.android.providers.partnerbookmarks           com.android.providers.partnerbookmarks                          9
     SimMobilityKit                                   com.samsung.ims.smk                                             1.3.19
     Game Optimizing Service                          com.samsung.android.game.gos                                    2.0.00.27
     WlanTest                                         com.sec.android.app.wlantest                                    1.1.0
     Reminder                                         com.samsung.android.app.reminder                                10.0.00.71000
     Basic Daydreams                                  com.android.dreams.basic                                        9
     BBCAgent                                         com.samsung.android.bbc.bbcagent                                4.0.00.6
     Chrome                                           com.android.chrome                                              71.0.3578.99
     GOS Legacy                                       com.enhance.gameservice                                         1.9.00.3
     Google Contacts Sync                             com.google.android.syncadapters.contacts                        9-4832352
     EmergencyProvider                                com.sec.android.provider.emergencymode                          2.0.03
     DRParser Mode                                    com.sec.android.app.parser                                      2.1.10
     Dual Messenger                                   com.samsung.android.da.daagent                                  2.0.00.0
     Bluetooth MIDI Service                           com.android.bluetoothmidiservice                                9
     SecurityLogAgent                                 com.samsung.android.securitylogagent                            8.0.00.20
     Android System WebView                           com.google.android.webview                                      71.0.3578.99
     com.google.ar.core                               com.google.ar.core                                              0
     ANT+ Plugins Service                             com.dsi.ant.plugins.antplus                                     3.6.10
     Nearby Service                                   com.samsung.android.allshare.service.mediashare                 2.2
     com.android.wallpaperbackup                      com.android.wallpaperbackup                                     9
     System Tracing                                   com.android.traceur                                             1
     Link Sharing                                     com.samsung.android.app.simplesharing                           9.0.00.13
     LTE Broadcast Middleware                         com.expway.embmsserver                                          1.10.2c-TELSTRA-FR15-SSM
     SmartFittingService                              com.samsung.android.smartfitting                                1.2.00
     MLDAPlog                                         com.sec.mldapchecker                                            1.0.03
     Dsms                                             com.samsung.android.dsms                                        1.0.29
     CarmodeStub                                      com.samsung.android.drivelink.stub                              1.2.03
     Knox Enrollment Service                          com.sec.enterprise.knox.cloudmdm.smdms                          2.0.35
     Smart Switch Agent                               com.sec.android.easyMover.Agent                                 1.6.06.61
     Autofill with Samsung Pass                       com.samsung.android.samsungpassautofill                         1.4.10.2
     ShortcutBNR                                      com.samsung.android.shortcutbackupservice                       9
     Virtual shot viewer                              com.samsung.android.app.interactivepanoramaviewer               2.0.37
     Facebook                                         com.facebook.katana                                             stub (37.1.4)
     OM Customize                                     com.sec.android.omc                                             2.1.05.0
     Smart View                                       com.samsung.android.smartmirroring                              7.0.64
     RcsSettings                                      com.samsung.rcs                                                 7.0r10456367
     USBSettings                                      com.sec.usbsettings                                             1
     Briefing                                         flipboard.boxer.app                                             3.2.3
     IMS Settings                                     com.samsung.advp.imssettings                                    1
     Motion panorama viewer                           com.samsung.android.app.motionpanoramaviewer                    2.0.70
     SamsungOne                                       com.monotype.android.font.samsungone                            1.0.01.3
     Smart Switch                                     com.sec.android.easyMover                                       3.6.02.6
     SharedDeviceKeyguard                             com.sec.enterprise.knox.shareddevice.keyguard                   1.1.161201
     ANT Radio Service                                com.dsi.ant.service.socket                                      4.14.20
     Always On Display                                com.samsung.android.app.aodservice                              4.2.17
     AR Emoji                                         com.samsung.android.aremoji                                     1.0.02.48
     Accessibility                                    com.samsung.accessibility                                       10.0.02.24
     com.google.android.gms.policy_sidecar_aps        com.google.android.gms.policy_sidecar_aps                       24900.194323810.194323810
     Apps edge                                        com.samsung.android.app.appsedge                                4.0.03
     Samsung Pass                                     com.samsung.android.authfw                                      2.0.00.22
     My Emoji Stickers                                com.sec.android.mimage.avatarstickers                           2.6.23.6
     com.android.backupconfirm                        com.android.backupconfirm                                       9
     BadgeProvider                                    com.sec.android.provider.badge                                  2.1.00.5
     SmartThings                                      com.samsung.android.beaconmanager                               9.0.24.0
     Face                                             com.samsung.android.bio.face.service                            1
     com.samsung.android.biometrics.app.setting       com.samsung.android.biometrics.app.setting                      1.0.0
     Bixby Voice                                      com.samsung.android.bixby.agent                                 2.1.05.0
     Bixby Voice Stub                                 com.samsung.android.bixby.agent.dummy                           1.0.01.0
     Bixby Home                                       com.samsung.android.app.spage                                   3.0.02.9
     Bixby Service                                    com.samsung.android.bixby.service                               2.1.05.0
     BixbyVision Framework                            com.samsung.android.bixbyvision.framework                       3.0.02.45
     \"Bixby\" voice wake-up                          com.samsung.android.bixby.wakeup                                2.1.06.6
     Blocked Numbers Storage                          com.android.providers.blockednumber                             9
     Blue light filter                                com.samsung.android.bluelightfilter                             2.0.0
     CMHProvider                                      com.samsung.cmh                                                 4.0.78
     CSC                                              com.samsung.sec.android.application.csc                         1.0.1.0
     Call Log Backup/Restore                          com.android.calllogbackup                                       9
     CarrierCodeChanger                               com.sec.android.CarrierCodeChanger                              2.0.0
     com.android.carrierconfig                        com.android.carrierconfig                                       1.0.0
     Edge screen                                      com.samsung.android.app.cocktailbarservice                      4.0.58
     ConfigUpdater                                    com.google.android.configupdater                                9-4832352
     Workspace                                        com.samsung.android.knox.containeragent                         2.7.05001015
     Call+                                            com.samsung.crane                                               1.1.00.5
     com.android.cts.priv.ctsshim                     com.android.cts.priv.ctsshim                                    8.1.0-4396705
     Package Access Helper                            com.android.defcontainer                                        9
     Samsung DeX                                      com.sec.android.desktopmode.uiservice                           3.3.07
     DeviceKeystring                                  com.sec.android.app.factorykeystring                            9
     DQA                                              com.samsung.android.dqagent                                     1.1.13.34
     DeviceTest                                       com.sec.factory                                                 9
     Samsung DeX panel                                com.sec.android.desktopcommunity                                2.0.10
     DiagMonAgent                                     com.sec.android.diagmonagent                                    5.4.32
     Files                                            com.android.documentsui                                         9
     Downloads                                        com.android.providers.downloads.ui                              9
     Live focus                                       com.samsung.android.app.dofviewer                               3.0.42
     SmartThings                                      com.samsung.android.easysetup                                   9.0.24.0
     Emergency information                            com.android.emergency                                           9
     emojiupdater                                     com.samsung.android.emojiupdater                                1.0.00.0
     com.sec.epdg                                     com.sec.epdg                                                    9
     External Storage                                 com.android.externalstorage                                     9
     Facebook App Installer                           com.facebook.system                                             37.1.4
     Facebook Services                                com.facebook.services                                           37.1.4
     com.samsung.faceservice                          com.samsung.faceservice                                         3.0.26
     Secure Wi-Fi                                     com.samsung.android.fast                                        3.3.00.0
     Finder                                           com.samsung.android.app.galaxyfinder                            9.0.64
     Find My Mobile                                   com.samsung.android.fmm                                         7.0.18.1
     Software update                                  com.wssyncmldm                                                  3.3.35
     Fused Location                                   com.android.location.fused                                      9
     Galaxy Graphics Driver                           com.samsung.gpudriver.S10MaliG76_90                             1.0.12.0
     Galaxy Essentials Widget                         com.sec.android.widgetapp.samsungapps                           1.7.13.0
     Galaxy Store                                     com.sec.android.app.samsungapps                                 4.4.02.29
     Game Launcher                                    com.samsung.android.game.gamehome                               3.5.20.0
     Game Tools                                       com.samsung.android.game.gametools                              2.5.01.1
     360 Photo Editor                                 com.sec.android.mimage.gear360editor                            2.6.21.28
     Gear VR Service                                  com.samsung.android.hmt.vrsvc                                   3.0.18
     Google Play services                             com.google.android.gms                                          14.7.99 (100400-223214910)
     Google Backup Transport                          com.google.android.backuptransport                              9-4832352
     Android Services Library                         com.google.android.ext.services                                 1
     Market Feedback Agent                            com.google.android.feedback                                     9-4832352
     Google One Time Init                             com.google.android.onetimeinitializer                           9-4832352
     Package installer                                com.google.android.packageinstaller                             9-5218085
     Google Partner Setup                             com.google.android.partnersetup                                 9-4832352
     Android Setup                                    com.google.android.apps.restore                                 1.0.233743793
     Google Services Framework                        com.google.android.gsf                                          9-5272573
     Health Service                                   com.sec.android.service.health                                  2.1.4.003
     Adapt Sound                                      com.sec.hearingadjust                                           7.1.39
     OK Google enrollment                             com.android.hotwordenrollment.okgoogle                          9
     X Google enrollment                              com.android.hotwordenrollment.xgoogle                           9
     HwModuleTest                                     com.sec.android.app.hwmoduletest                                9
     IPService                                        com.samsung.ipservice                                           2.0.31
     ImsLogger                                        com.sec.imslogger                                               1.20170701
     com.sec.ims                                      com.sec.ims                                                     1
     Input Devices                                    com.android.inputdevices                                        9
     IpsGeofence                                      com.samsung.android.ipsgeofence                                 3.0.00.29
     KLMS Agent                                       com.samsung.klmsagent                                           3.2.19105
     Keyguard Wallpaper Updator                       com.samsung.android.keyguardwallpaperupdator                    2.0.41
     KnoxContainerDesktop                             com.samsung.android.knox.containerdesktop                       1
     KnoxCore                                         com.samsung.android.knox.containercore                          1
     Samsung DeX Home                                 com.sec.android.app.desktoplauncher                             2.7.07.16
     Payment Services                                 com.samsung.android.kgclient                                    1.7.11
     LED Cover                                        com.samsung.android.app.ledbackcover                            1.0.53
     LED Cover Service                                com.sec.android.cover.ledcover                                  1.3.56
     LinkedIn                                         com.linkedin.android                                            1.0.6
     Work profile setup                               com.android.managedprovisioning                                 9
     Samsung Galaxy Friends                           com.samsung.android.mateagent                                   2.0.60.13
     mlp                                              com.samsung.mlp                                                 3.0.05
     MmsService                                       com.android.mms.service                                         9
     Service mode RIL                                 com.sec.android.RilServiceModeApp                               9
     MTP application                                  com.samsung.android.MtpApplication                              1
     MTP Host                                         com.android.mtp                                                 9
     Separate app sound                               com.samsung.android.setting.multisound                          1.0.00.21
     Default                                          com.samsung.android.beyond.p00.wallpapermulti                   7
     NSDSWebApp                                       com.sec.vsim.ericssonnsds.webapp                                1.2.00
     Samsung Location SDK                             com.sec.location.nsflp2                                         4.0.41
     NetworkDiagnostic                                com.samsung.android.networkdiagnostic                           2.1.00.21
     NLPHub                                           com.samsung.android.nlphub                                      1.3.04
     Configuration update                             com.samsung.android.app.omcagent                                5.1.38
     Office Mobile                                    com.microsoft.office.officehubrow                               16.1.0.1
     Configuration message                            com.wsomacp                                                     7.2.13
     OneDrive                                         com.microsoft.skydrive                                          5.24.1
     Samsung PaymentFramework                         com.samsung.android.spayfw                                      2.7.91
     People edge                                      com.samsung.android.service.peoplestripe                        16.0.00.30
     RilNotifier                                      com.sec.app.RilErrorNotifier                                    1.0.0
     Google Play Store                                com.android.vending                                             13.5.56-all [0] [PR] 233508088
     Photo Editor                                     com.sec.android.mimage.photoretouching                          2.6.21.28
     Application installer                            com.sec.android.preloadinstaller                                9
     ProxyHandler                                     com.android.proxyhandler                                        9
     Bixby Routines                                   com.samsung.android.app.routines                                2.1.10
     Customization Service                            com.samsung.android.rubin.app                                   2.3.00.46
     SCameraService                                   com.samsung.android.camerasdkservice                            1.1
     Configuration update                             com.samsung.android.sdm.config                                  1.0.21
     SEMFactoryApp                                    com.sem.factoryapp                                              4.4
     SKMSAgentService                                 com.skms.android.agent                                          1.0.40-23
     Software update                                  com.sec.android.soagent                                         4.4.13
     Security policy updates                          com.samsung.android.spdclient                                   6.0.15
     Samsung Push Service                             com.sec.spp.push                                                2.0.09
     SVC Agent                                        com.samsung.android.svcagent                                    4.0.00.6
     Samsung voice input                              com.samsung.android.svoiceime                                   2.1.01.186
     Samsung account                                  com.osp.app.signin                                              4.0.00.1
     Samsung Billing                                  com.sec.android.app.billing                                     5.0.16.0
     Calendar Storage                                 com.android.providers.calendar                                  10.0.00.14
     Camera                                           com.sec.android.app.camera                                      9.0.04.3
     Samsung Cloud                                    com.samsung.android.scloud                                      3.5.01.16
     Contacts                                         com.samsung.android.contacts                                    10.0.07.16
     Contacts Storage                                 com.samsung.android.providers.contacts                          10.0.61
     Samsung Device Health Manager Service            com.sec.android.sdhms                                           9
     Phone                                            com.samsung.android.dialer                                      10.0.07.16
     Digital Wellbeing                                com.samsung.android.wellbeing                                   1.0.00.1
     Samsung Experience Svc                           com.samsung.android.mobileservice                               10.1.00.14
     Gallery                                          com.sec.android.gallery3d                                       10.0.02.108
     Call                                             com.samsung.android.incallui                                    10.1.00.55
     Magnifier                                        com.sec.android.app.magnifier                                   4.0.26
     Messages                                         com.samsung.android.messaging                                   10.0.20.48
     Samsung Pass Provider                            com.samsung.android.samsungpass                                 2.0.00.6
     SamsungPositioning                               com.samsung.android.samsungpositioning                          3.0.03.9
     What                                             com.samsung.android.app.social                                  10.0.16.14
     Time Zone Updater                                com.samsung.android.timezone.updater                            1.0.00.00000
     Video Player                                     com.samsung.android.video                                       7.3.02.5
     Download Manager                                 com.android.providers.downloads                                 9
     Live Wallpaper Picker                            com.android.wallpaper.livepicker                                9
     Media Storage                                    com.android.providers.media                                     9
     My Files                                         com.sec.android.app.myfiles                                     10.0.02.35
     Settings                                         com.android.settings                                            9
     Settings Suggestions                             com.android.settings.intelligence                               9
     Samsung SetupWizard                              com.sec.android.app.SecSetupWizard                              1.0.69.1
     Dialer Storage                                   com.android.providers.telephony                                 9
     Secure Folder                                    com.samsung.knox.securefolder                                   1.3.01.77
     Safety assistance                                com.sec.android.app.safetyassurance                             10.0.00.19
     SettingsBixby                                    com.samsung.android.app.settings.bixby                          1.0.43
     Settings Storage                                 com.android.providers.settings                                  9
     Settings                                         com.samsung.android.SettingsReceiver                            9
     Android Setup                                    com.google.android.setupwizard                                  228.5224507
     com.android.sharedstoragebackup                  com.android.sharedstoragebackup                                 9
     Shell                                            com.android.shell                                               9
     SIM card manager                                 com.sec.android.app.simsettingmgr                               1
     Live focus picture                               com.samsung.android.app.siofviewer                              1.0.30
     EpdgTestApp                                      com.sec.epdgtestapp                                             9
     Smart Call                                       com.samsung.android.smartcallprovider                           10.0.13
     Device care                                      com.samsung.android.lool                                        10.0.00.65
     Device security                                  com.samsung.android.sm.devicesecurity                           6.2.06
     com.samsung.android.smartswitchassistant         com.samsung.android.smartswitchassistant                        1.0.06
     SoundAlive                                       com.sec.android.app.soundalive                                  9.0.90
     Intent Filter Verification Service               com.android.statementservice                                    1
     StickerCenter                                    com.samsung.android.stickercenter                               1.0.2.0
     Face decorations                                 com.samsung.android.app.camera.sticker.facear.preload           3.0.10
     Kids Mode friends                                com.samsung.android.app.camera.sticker.facearavatar.preload     2.0.12
     Facial expressions                               com.samsung.android.app.camera.sticker.facearexpression.preload 1.0.05
     Frames                                           com.samsung.android.app.camera.sticker.facearframe.preload      1.0.19
     Stamps                                           com.samsung.android.app.camera.sticker.stamp.preload            3.0.10
     Storage Manager                                  com.android.storagemanager                                      9
     StoryService                                     com.samsung.storyservice                                        2.0.23
     SuwScriptPlayer                                  com.sec.android.app.suwscriptplayer                             2.0.10.1
     System Intelligence                              com.samsung.android.app.si                                      1.0.18
     System UI                                        com.android.systemui                                            9
     SystemUIBixby2                                   com.samsung.systemui.bixby2                                     1.0.04.1
     Samsung DeX System UI                            com.samsung.desktopsystemui                                     9
     TADownloader                                     com.samsung.android.tadownloader                                1.0.32
     AuthFw TaPack                                    com.samsung.android.tapack.authfw                               1.0.19.0
     Tags                                             com.android.apps.tag                                            4.1.02
     Tasks edge                                       com.samsung.android.app.taskedge                                3.3.49
     Phone Services                                   com.android.phone                                               9
     Call Management                                  com.android.server.telecom                                      9
     Phone                                            com.samsung.android.app.telephonyui                             10.1.00.51
     Samsung Themes                                   com.samsung.android.themecenter                                 8.0.0.0
     Samsung Themes                                   com.samsung.android.themestore                                  4.2.37.90111
     Samsung Time Zone Data                           com.samsung.android.timezone.data_P                             1.0.02.0
     One UI Home                                      com.sec.android.app.launcher                                    10.0.10.38
     Device Health Services                           com.google.android.apps.turbo                                   1.7.0.231232376.release
     UIBCVirtualSoftkey                               com.sec.android.uibcvirtualsoftkey                              2.0.22
     upday                                            de.axelspringer.yana.zeropage                                   2.5.12709
     User Dictionary                                  com.android.providers.userdictionary                            9
     Google                                           com.google.android.googlequicksearchbox                         9.10.7.21.arm64
     VpnDialogs                                       com.android.vpndialogs                                          9
     com.android.wallpapercropper                     com.android.wallpapercropper                                    9
     Wallpapers                                       com.sec.android.wallpapercropper2                               4.0.00.29
     IMS Service                                      com.sec.imsservice                                              1
     Knox Analytics Uploader                          com.samsung.android.knox.analytics.uploader                     1.1.26.1
     KnoxVpnPacProcessor                              com.knox.vpn.proxyhandler                                       9
     ringtonebackup                                   com.sec.android.app.ringtoneBR                                  9
     Service mode                                     com.sec.android.app.servicemodeapp                              9
     SmartFaceService                                 com.samsung.android.smartface                                   1
     com.samsung.android.wallpaper.res                com.samsung.android.wallpaper.res                               9
     Android System                                   android                                                         9
     Samsung Members                                  com.samsung.android.voc                                         2.8.99.7
     Corner cutout                                    com.android.internal.display.cutout.emulation.corner            1
     android.auto_generated_rro__                     android.auto_generated_rro__                                    1
     HideNotch                                        com.samsung.systemui.hidenotch                                  1
     Dark                                             com.android.systemui.theme.dark                                 1
     HideNotchWithoutCornerRound                      com.samsung.systemui.hidenotch.withoutcornerround               1
     Tall cutout                                      com.android.internal.display.cutout.emulation.tall              1
     Double cutout                                    com.android.internal.display.cutout.emulation.double            1
